64.110.87.129   2095
64.110.87.129   2082
64.110.87.129   8880
64.110.87.129   2086
64.110.87.129   8080
64.110.87.129   2052
64.110.87.129   80
140.83.63.99    2052
140.83.63.99    2095
140.83.63.99    80
140.83.63.99    2086
168.138.47.238  8443
140.83.63.99    8080
141.147.149.215 80
141.147.149.215 8080
141.147.149.215 2086
192.9.143.99    80
64.110.101.56   2052
64.110.101.56   8880
64.110.101.56   80
64.110.101.56   8080
64.110.101.56   2095
131.186.29.32   80
132.145.88.113  80
132.145.88.113  2052
132.145.88.113  2086
132.145.88.113  2082
132.145.88.113  2095
132.145.88.113  8880
132.145.88.113  8080
131.186.29.32   2082
131.186.29.32   2052
131.186.29.32   2095
131.186.29.32   8880
131.186.29.32   8080
131.186.29.32   2086
193.122.125.182 80
193.122.125.182 2086
193.122.125.182 2052
193.122.125.182 2095
193.122.125.182 2082
193.122.125.182 8880
132.226.174.110 80
193.122.125.182 8080
131.186.63.184  8880
64.110.98.42    2086
64.110.98.42    2095
64.110.98.42    2082
141.147.174.40  2082
64.110.98.42    8880
141.147.174.40  8080
141.147.174.40  2052
138.2.38.223    2052
138.2.38.223    8880
141.147.144.248 80
141.147.144.248 2082
141.147.144.248 2086
141.147.144.248 8880
131.186.27.222  2082
131.186.27.222  80
131.186.27.222  2052
152.69.206.113  2082
131.186.27.222  2086
131.186.27.222  2095
152.69.206.113  2086
131.186.27.222  8080
131.186.27.222  8880
152.69.206.113  8080
141.147.144.248 8080
158.180.81.221  2082
158.180.81.221  8880
158.180.81.221  80
158.180.81.221  2052
158.180.81.221  2086
158.180.81.221  8080
141.147.144.248 2095
140.238.12.105  80
140.238.12.105  2082
140.238.12.105  2086
140.238.12.105  8080
146.56.172.192  14508
152.69.192.158  2052
152.69.192.158  2086
152.69.192.158  8080
150.230.218.127 80
150.230.218.127 8080
144.24.95.167   80
144.24.95.167   2052
144.24.95.167   2082
144.24.95.167   8080
144.24.95.167   2095
144.24.95.167   8880
168.138.161.0   80
168.138.161.0   2086
168.138.161.0   2095
168.138.161.0   8080
168.138.161.0   8880
130.162.154.85  2052
130.162.154.85  8880
130.162.154.85  2095
130.162.154.85  2082
130.162.154.85  80
144.24.95.167   2086
130.162.154.85  2086
130.162.154.85  8080
64.110.87.204   2052
64.110.87.204   80
64.110.87.204   2086
64.110.87.204   2082
64.110.87.204   8080
64.110.87.204   2095
64.110.87.204   8880
152.67.211.219  80
152.67.211.219  2082
152.67.211.219  2086
152.67.211.219  2052
152.67.211.219  8880
152.69.205.228  2095
140.238.59.40   2052
152.69.205.228  80
152.69.205.228  8080
152.67.211.219  2095
152.67.211.219  8080
140.238.59.40   2086
152.69.205.228  2082
138.2.92.11     80
138.2.92.11     2082
138.2.92.11     2086
138.2.92.11     8080
138.2.92.11     8880
64.110.109.225  80
64.110.109.225  2095
64.110.109.225  2052
141.147.164.153 2082
141.147.164.153 2086
141.147.164.153 2095
155.248.185.166 2052
141.147.164.153 8080
141.147.164.153 8880
155.248.163.59  2082
131.186.37.134  2082
131.186.37.134  80
131.186.37.134  8080
129.154.55.58   80
129.154.55.58   2086
129.154.55.58   2095
129.154.55.58   8880
131.186.37.134  2052
129.154.55.58   2052
152.67.198.156  80
152.67.198.156  2082
152.67.198.156  2086
131.186.37.134  8880
152.67.198.156  8080
152.67.198.156  8880
152.67.198.156  2052
141.147.153.231 80
141.147.153.231 8080
152.67.198.156  2095
141.147.153.231 2082
141.147.153.231 2086
150.230.251.131 80
150.230.251.131 2052
150.230.251.131 2082
150.230.251.131 2086
150.230.251.131 8080
150.230.251.131 8880
131.186.41.255  2095
131.186.41.255  2082
141.147.188.77  80
131.186.41.255  8880
141.147.183.227 2086
141.147.183.227 2095
141.147.183.227 2052
150.230.205.221 2082
141.147.155.23  2052
141.147.155.23  2095
141.147.155.23  8080
141.147.155.23  80
141.147.155.23  2086
141.147.155.23  2082
193.122.123.166 80
193.122.123.166 2052
193.122.123.166 2082
193.122.123.166 2086
193.122.123.166 2095
193.122.123.166 8080
193.122.123.166 8880
144.24.91.19    2086
144.24.91.19    2095
144.24.91.19    8080
144.24.91.19    8880
144.24.91.19    80
140.238.54.149  80
140.238.54.149  2082
131.186.61.31   8080
131.186.61.31   2095
131.186.61.31   2086
131.186.61.31   8880
144.24.79.148   80
144.24.79.148   2082
144.24.79.148   2095
150.230.63.67   2052
150.230.63.67   2086
150.230.63.67   8080
146.56.115.90   2052
146.56.115.90   80
146.56.115.90   2082
146.56.115.90   8080
146.56.115.90   8880
131.186.34.120  2052
131.186.34.120  8880
150.230.4.38    80
150.230.4.38    2052
150.230.4.38    2086
168.138.53.69   2086
168.138.53.69   80
158.178.246.169 80
158.178.246.169 2052
168.138.53.69   8080
158.178.246.169 2082
158.178.246.169 2086
158.178.246.169 2095
150.230.219.83  2095
158.178.246.169 8080
158.178.246.169 8880
193.123.245.132 2086
193.123.245.132 2095
193.123.245.132 80
193.123.245.132 8080
193.123.245.132 2052
152.67.198.107  2052
152.67.198.107  2086
152.67.198.107  2095
152.67.198.107  8080
141.147.154.233 2086
141.147.154.233 2095
141.147.154.233 8880
138.2.13.48     2095
141.147.154.233 8080
138.2.13.48     2086
130.162.145.35  80
130.162.145.35  2082
130.162.145.35  2052
130.162.145.35  2086
130.162.145.35  2095
130.162.145.35  8080
130.162.145.35  8880
152.70.238.76   2052
152.70.238.76   80
141.147.158.93  2095
141.147.158.93  2052
140.238.19.2    443
141.147.175.150 2095
138.2.118.138   443
132.226.22.66   80
132.226.22.66   2052
141.147.175.150 2082
132.226.22.66   2082
141.147.175.150 2052
132.226.22.66   2086
141.147.175.150 8080
132.226.22.66   2095
132.226.22.66   8080
132.226.22.66   8880
158.180.91.249  2082
158.180.91.249  2052
158.180.91.249  8880
158.180.91.249  8080
158.180.91.249  2086
152.70.239.167  80
158.101.94.12   2082
158.101.94.12   80
138.2.48.124    8080
152.70.239.167  2082
152.70.239.167  2052
152.70.239.167  2086
152.70.239.167  2095
152.70.239.167  8080
152.70.239.167  8880
138.2.48.124    2086
138.2.48.124    2082
193.122.105.73  80
193.122.105.73  2052
193.122.105.73  2082
158.101.94.12   2095
193.122.105.73  2086
193.122.105.73  2095
193.122.105.73  8080
193.122.105.73  8880
131.186.37.49   80
144.24.93.131   80
144.24.93.131   2052
144.24.93.131   8880
129.154.212.11  80
129.154.212.11  2052
129.154.212.11  2082
129.154.212.11  2086
129.154.212.11  8880
129.154.212.11  2095
129.154.212.11  8080
144.24.93.131   2086
144.24.93.131   2082
152.70.250.214  80
152.70.250.214  2052
152.70.250.214  2082
152.70.250.214  2086
152.70.250.214  2095
152.70.250.214  8080
152.70.250.214  8880
150.230.248.235 2082
150.230.248.235 2095
150.230.248.235 8880
150.230.248.235 80
150.230.248.235 2052
141.147.175.230 2086
150.230.248.235 2086
141.147.185.165 80
141.147.185.165 2086
131.186.27.72   80
131.186.27.72   2082
131.186.27.72   2086
131.186.27.72   2095
131.186.27.72   8080
131.186.27.72   8880
131.186.27.72   2052
141.147.175.230 8880
141.147.175.230 2082
141.147.185.165 2082
141.147.185.165 2052
141.147.157.215 2052
152.67.208.238  80
152.67.208.238  2052
152.67.208.238  2082
152.67.208.238  2086
141.147.157.215 2095
152.67.208.238  8880
141.147.157.215 8880
152.67.208.238  8080
141.147.157.215 2082
141.147.157.215 8080
152.67.206.241  2052
152.67.206.241  2082
152.67.206.241  2086
152.67.206.241  8080
152.67.206.241  80
150.230.211.251 2082
152.67.206.241  8880
146.56.116.12   2052
146.56.116.12   2086
146.56.116.12   2082
146.56.116.12   2095
146.56.116.12   8080
146.56.116.12   8880
146.56.116.12   80
140.83.49.5     2052
140.83.49.5     2082
132.145.114.221 80
150.230.211.251 2052
140.83.49.5     2086
138.2.115.161   2052
138.2.115.161   2086
138.2.115.161   2095
138.2.115.161   2082
138.2.115.161   8880
138.2.115.161   80
152.67.209.19   80
152.67.209.19   2086
152.67.209.19   8080
152.67.209.19   2095
152.67.209.19   2082
152.67.209.19   8880
158.180.71.36   80
152.67.201.228  2052
152.67.201.228  2095
193.122.116.148 2052
193.122.116.148 80
193.122.116.148 2082
193.122.116.148 2086
193.122.116.148 8080
193.122.116.148 8880
193.122.116.148 2095
138.2.0.200     8880
193.122.106.56  30345
155.248.174.208 2082
152.69.200.196  80
152.69.200.196  2052
152.69.200.196  8080
129.154.212.179 10089
129.154.212.179 3001
129.154.212.179 3398
158.179.164.103 2086
168.138.215.189 8880
152.67.217.178  2052
168.138.215.189 2052
152.67.217.178  8880
168.138.215.189 2095
168.138.215.189 2082
152.69.199.228  8080
141.147.173.34  2082
138.2.46.116    2086
138.2.46.116    2052
64.110.102.210  80
64.110.102.210  8080
138.2.46.116    2095
151.145.70.212  2095
141.147.173.34  8880
151.145.70.212  8080
64.110.102.210  8880
151.145.70.212  2086
129.154.58.200  80
138.2.46.116    8080
129.154.58.200  2095
129.154.58.200  8080
141.147.173.34  8080
129.154.58.200  8880
129.154.58.200  2082
158.180.95.52   2082
158.180.95.52   2052
158.180.95.52   2095
158.180.95.52   8080
158.180.95.52   8880
158.180.86.96   80
158.180.86.96   2082
158.180.86.96   2086
158.180.86.96   8880
158.180.83.65   2052
129.154.58.200  2086
158.101.80.145  8880
144.24.91.233   80
144.24.91.233   2082
144.24.91.233   2086
158.180.86.96   8080
144.24.91.233   8080
144.24.91.233   8880
158.101.80.145  8080
141.147.146.84  2052
158.101.135.42  2052
158.101.135.42  8880
138.2.33.197    2086
138.2.33.197    8880
158.101.135.42  8080
138.2.33.197    80
138.2.33.197    8080
138.2.33.197    2082
144.24.69.65    80
64.110.107.137  2052
141.147.148.167 2082
64.110.107.137  2095
141.147.148.167 2086
129.154.48.75   80
129.154.48.75   2052
129.154.48.75   2082
129.154.48.75   8080
150.230.59.99   80
150.230.59.99   8880
129.154.48.75   2095
129.154.48.75   8880
138.2.43.87     8080
138.2.43.87     8880
138.2.43.87     80
138.2.43.248    2086
152.69.200.88   8080
138.2.43.248    2095
138.2.43.248    8880
152.69.200.88   2052
152.69.200.88   2082
158.179.176.239 2086
158.179.176.239 2082
158.179.160.250 2086
158.179.176.239 2052
158.179.160.250 8880
144.24.80.212   2052
144.24.80.212   2082
144.24.80.212   80
158.179.176.239 2095
144.24.80.212   2095
144.24.80.212   8080
168.138.203.185 2052
158.179.160.250 2052
155.248.162.233 2052
155.248.162.233 2082
155.248.162.233 8880
158.179.177.155 80
140.238.42.208  8880
158.179.177.155 2095
158.101.136.168 80
158.179.177.155 2086
158.101.140.40  2052
64.110.99.155   2052
64.110.99.155   2082
146.56.138.78   80
158.101.158.209 2086
146.56.138.78   2052
146.56.138.78   2095
146.56.138.78   2082
146.56.138.78   8080
64.110.99.155   2095
146.56.138.78   2086
64.110.99.155   8080
193.122.115.179 2052
193.122.115.179 80
193.122.115.179 2082
158.101.140.40  8880
193.122.115.179 2086
193.122.115.179 8080
193.122.115.179 2095
193.122.115.179 8880
64.110.99.155   80
158.179.183.193 2052
158.179.183.193 8880
158.179.183.193 80
168.138.215.188 2086
138.2.34.78     2082
138.2.34.78     2052
138.2.34.78     2095
138.2.52.34     2095
138.2.52.34     8080
138.2.52.34     8880
138.2.52.34     2082
138.2.52.34     2086
152.70.246.34   80
152.70.246.34   2052
152.70.246.34   2086
152.70.246.34   8080
152.70.246.34   2082
152.70.246.34   8880
150.230.60.236  2095
150.230.60.236  8080
150.230.60.236  8880
144.24.65.163   2095
150.230.216.117 2095
158.101.137.74  80
150.230.216.117 8080
150.230.216.117 8880
158.101.137.74  2086
131.186.24.179  2052
131.186.24.179  80
131.186.24.179  2082
131.186.24.179  2086
131.186.24.179  2095
131.186.24.179  8080
131.186.24.179  8880
130.162.136.175 80
130.162.136.175 2052
130.162.136.175 2095
130.162.136.175 2086
130.162.136.175 8880
130.162.136.175 8080
152.67.201.73   80
152.67.201.73   2086
152.67.201.73   2095
152.67.201.73   8080
158.179.167.231 80
152.67.201.73   2082
158.179.167.231 2095
152.67.201.73   8880
158.179.167.231 8080
152.67.201.73   2052
158.180.82.69   8880
158.179.167.231 8880
138.2.11.227    2095
152.67.198.190  8880
140.238.44.118  2052
140.238.44.118  8080
152.67.208.153  8880
140.238.44.118  8880
152.69.235.248  2082
152.69.235.248  2095
152.67.222.30   80
152.67.222.30   8080
152.67.222.30   2086
138.2.6.65      2052
141.147.159.195 2086
129.154.49.66   2095
129.154.49.66   8880
129.154.49.66   2052
129.154.49.66   8080
146.56.97.214   2082
129.154.49.66   2086
140.83.58.137   80
64.110.89.155   2052
64.110.89.155   80
64.110.89.155   2082
64.110.89.155   2086
64.110.89.155   2095
140.83.58.137   8080
64.110.89.155   8080
64.110.89.155   8880
140.238.17.5    2052
140.238.17.5    80
140.238.17.5    2082
140.238.17.5    2086
140.238.17.5    2095
140.238.17.5    8080
141.147.150.159 2082
140.238.17.5    8880
141.147.150.159 2095
141.147.150.159 8880
141.147.150.159 80
138.2.51.50     8080
138.2.51.50     80
138.2.51.50     2086
138.2.51.50     2082
146.56.116.64   2052
146.56.116.64   2082
146.56.116.64   2095
146.56.116.64   80
146.56.116.64   8880
150.230.211.20  8880
132.226.6.5     2082
132.226.6.5     2095
168.138.212.188 2095
168.138.212.188 8080
146.56.116.147  2086
132.226.6.5     8080
146.56.116.147  8080
146.56.116.64   8080
131.186.23.78   2052
131.186.23.78   80
131.186.23.78   2086
132.226.6.5     2086
146.56.116.64   2086
131.186.23.78   2095
131.186.23.78   2082
131.186.23.78   8080
131.186.23.78   8880
130.162.150.18  35002
144.24.83.248   2082
144.24.83.248   80
144.24.83.248   2052
144.24.83.248   2095
144.24.83.248   2086
158.179.190.118 2082
158.179.190.118 8080
158.179.190.118 2095
131.186.47.223  8080
168.138.44.33   2052
168.138.44.33   2095
64.110.108.162  2086
64.110.108.162  80
64.110.108.162  2052
168.138.44.33   80
168.138.44.33   2086
168.138.44.33   8880
129.154.223.213 2082
64.110.106.181  2052
64.110.106.181  8880
144.24.76.89    2052
144.24.76.89    8880
144.24.76.89    2095
144.24.76.89    8080
129.154.62.248  2082
129.154.62.248  80
144.24.76.89    2082
64.110.107.5    8880
140.238.30.182  80
158.101.136.221 8880
140.238.30.182  2095
140.238.30.182  8080
140.238.30.182  8880
158.101.136.221 2052
158.101.136.221 2086
144.24.68.146   80
144.24.68.146   2095
144.24.68.146   2086
144.24.68.146   2082
144.24.68.146   8880
144.24.68.146   2052
64.110.106.206  80
64.110.106.206  2082
64.110.106.206  8880
64.110.106.206  2052
138.2.6.248     2052
138.2.12.221    2086
193.122.104.93  80
193.122.104.93  2052
193.122.104.93  2082
193.122.104.93  2086
193.122.104.93  8080
193.122.104.93  8880
129.154.213.163 80
129.154.213.163 2052
129.154.213.163 2082
129.154.213.163 2086
129.154.213.163 2095
129.154.213.163 8080
129.154.213.163 8880
146.56.45.125   2052
146.56.45.125   80
146.56.45.125   2082
158.101.88.67   2086
146.56.100.17   80
129.154.220.248 80
129.154.220.248 2082
129.154.220.248 2086
129.154.220.248 8080
129.154.220.248 8880
64.110.99.5     2052
64.110.99.5     2082
64.110.99.5     2095
140.238.0.145   80
140.238.0.145   2082
140.238.0.145   2052
140.238.0.145   8080
140.238.0.145   2095
140.238.0.145   2086
140.238.0.145   8880
141.147.149.198 8080
141.147.149.198 2052
150.230.213.140 8443
146.56.104.134  8880
141.147.165.15  2052
141.147.165.15  2082
146.56.100.215  2052
146.56.100.215  2082
158.179.195.197 2052
158.179.195.197 80
158.179.195.197 2095
138.2.40.235    2052
158.179.195.197 2086
158.179.195.197 8880
138.2.40.235    2095
140.83.62.18    2052
158.180.78.250  80
158.180.78.250  2052
158.180.78.250  8080
158.180.78.250  8880
131.186.26.217  2052
131.186.26.217  2082
131.186.26.217  80
131.186.26.217  2086
131.186.26.217  2095
131.186.26.217  8080
131.186.26.217  8880
158.101.142.103 8080
158.101.142.103 8880
158.101.142.103 2086
132.226.5.102   2082
138.2.60.192    2095
138.2.60.116    80
138.2.60.116    2095
168.138.34.144  2086
138.2.60.116    8880
168.138.34.144  2082
155.248.186.186 2082
131.186.58.44   80
150.230.213.171 2095
146.56.104.175  2052
146.56.104.175  2095
152.69.192.76   2052
138.2.45.201    2086
138.2.45.201    2095
146.56.133.140  2083
146.56.133.140  2096
138.2.45.201    2052
141.147.182.231 2082
138.2.45.201    80
141.147.182.231 2086
141.147.182.231 80
131.186.43.107  80
140.238.13.87   80
140.238.13.87   2052
140.238.13.87   2086
140.238.13.87   2082
140.238.13.87   8080
140.238.13.87   2095
140.238.13.87   8880
193.122.112.163 80
193.122.112.163 2082
193.122.112.163 8080
193.122.112.163 8880
152.70.83.118   2052
152.70.83.118   2086
152.67.210.59   2052
152.67.210.59   2086
152.67.210.59   2095
152.67.210.59   8080
130.162.156.148 80
130.162.156.148 2052
130.162.156.148 2095
130.162.156.148 2086
130.162.156.148 2082
152.67.210.59   80
152.70.83.118   2082
152.70.83.118   8880
152.70.83.118   80
138.3.212.144   8080
138.3.212.144   8880
152.67.210.59   2082
141.148.238.203 80
138.3.212.144   80
129.150.63.96   80
129.150.63.96   2052
129.150.63.96   2082
129.150.63.96   2086
129.150.63.96   2095
129.150.63.96   8080
129.150.63.96   8880
158.101.138.1   2052
158.101.138.1   2082
158.101.138.1   80
140.238.49.202  80
138.2.122.190   80
138.2.122.190   8080
138.2.122.190   8880
138.2.122.190   2052
138.2.122.190   2082
150.230.202.132 2052
132.226.9.166   2052
64.110.65.194   2052
64.110.65.194   80
64.110.65.194   2082
64.110.65.194   2086
64.110.65.194   2095
64.110.65.194   8080
64.110.65.194   8880
193.122.116.193 80
193.122.116.193 8080
193.122.116.193 8880
150.230.103.155 80
150.230.103.155 2052
140.83.37.76    80
150.230.103.155 2095
140.83.37.76    2052
140.83.37.76    2095
140.83.37.76    8880
150.230.6.236   8880
146.56.148.144  80
146.56.148.144  2082
150.230.6.236   2086
146.56.148.144  2052
131.186.41.149  2052
146.56.148.144  2086
150.230.6.236   2095
146.56.148.144  8880
152.67.222.250  80
146.56.148.144  2095
146.56.148.144  8080
132.145.125.249 8880
158.101.143.78  2052
144.24.68.115   2082
144.24.68.115   2086
144.24.68.115   8880
158.180.92.215  80
144.24.68.115   80
158.180.92.215  8880
158.101.143.78  80
158.180.92.215  2052
138.2.113.4     2086
158.180.92.215  2086
158.180.92.215  8080
152.69.230.207  8080
152.69.230.207  2086
151.145.72.229  80
158.180.92.215  2082
152.70.96.96    2052
151.145.72.229  2095
158.180.76.253  2052
152.70.96.96    8080
131.186.18.100  80
168.138.185.253 80
131.186.18.100  2052
168.138.185.253 2052
168.138.185.253 2082
168.138.185.253 2086
131.186.18.100  2086
168.138.185.253 2095
131.186.18.100  2082
131.186.18.100  8080
168.138.185.253 8080
168.138.185.253 8880
131.186.18.100  2095
131.186.18.100  8880
130.162.153.5   80
130.162.153.5   2052
130.162.153.5   2082
130.162.153.5   2095
130.162.153.5   2086
130.162.153.5   8080
130.162.153.5   8880
140.238.10.27   80
140.238.10.27   2052
140.238.10.27   2082
140.238.10.27   2086
140.238.10.27   2095
140.238.10.27   8080
140.238.10.27   8880
64.110.106.13   2082
131.186.63.127  80
64.110.106.13   8080
131.186.63.127  2082
140.83.62.196   2082
64.110.106.13   2052
131.186.63.127  8080
158.180.85.46   2052
158.180.85.46   80
131.186.63.127  2052
158.180.85.46   2095
158.180.85.46   8080
158.180.85.46   8880
131.186.63.127  2086
152.67.213.120  2052
152.67.213.120  8080
138.2.14.164    2082
152.67.213.120  2086
152.69.233.249  2052
152.69.233.249  80
152.69.233.249  2086
152.69.233.249  8880
138.2.14.164    8880
150.230.7.167   80
140.83.57.116   8443
152.67.213.120  80
150.230.7.167   8080
138.2.14.164    80
158.180.73.201  8080
158.180.73.201  2082
158.180.73.201  2052
158.101.150.100 8080
141.147.188.162 8080
141.147.188.162 2082
141.147.188.162 2052
158.180.86.178  8880
158.101.146.66  80
158.101.146.66  2095
138.2.124.213   80
158.101.146.66  2086
152.69.194.7    2052
152.69.194.7    2095
158.180.91.109  80
138.2.124.213   2086
138.2.124.213   2082
152.69.194.7    2082
152.69.194.7    8880
158.101.146.66  2082
152.69.194.7    80
158.180.70.194  2052
158.180.70.194  2086
158.180.70.194  8080
158.179.179.36  2052
158.179.179.36  2086
140.238.14.139  80
158.180.70.194  8880
140.238.14.139  2082
140.238.14.139  2086
140.238.14.139  8080
141.147.152.132 80
141.147.152.132 2086
132.226.168.215 2052
132.226.168.215 80
132.226.168.215 2082
132.226.168.215 2095
132.226.168.215 2086
132.226.168.215 8880
132.226.168.215 8080
141.147.152.132 2082
141.147.152.132 8880
138.2.61.104    2082
138.2.61.104    8080
158.179.178.142 8880
64.110.73.121   80
64.110.73.121   2052
64.110.73.121   2082
64.110.73.121   2086
64.110.73.121   2095
64.110.73.121   8080
64.110.73.121   8880
152.67.205.245  80
152.67.205.245  2095
152.67.205.245  2086
152.67.205.245  8880
152.67.205.245  8080
152.70.254.185  2052
152.70.254.185  80
152.70.254.185  2082
152.70.254.185  2086
152.67.205.245  2052
152.70.254.185  2095
152.70.254.185  8080
152.70.254.185  8880
152.67.198.39   2082
152.67.198.39   2052
152.67.198.39   8880
138.2.34.154    2052
132.145.92.219  66
131.186.29.13   2052
132.145.92.219  28888
131.186.29.13   8880
131.186.29.13   80
131.186.29.13   2082
131.186.29.13   2086
131.186.29.13   2095
131.186.29.13   8080
152.70.248.72   2052
152.70.248.72   80
152.70.248.72   2095
152.70.248.72   2086
152.70.248.72   8080
152.70.248.72   8880
152.70.248.72   2082
144.24.81.246   80
158.179.184.10  2052
158.179.184.10  2086
158.179.184.10  8880
152.69.193.215  80
131.186.34.11   2086
132.145.112.168 2095
138.2.50.30     8880
131.186.34.11   2095
141.147.144.183 80
64.110.66.212   80
141.147.144.183 2086
141.147.144.183 8880
138.2.59.196    2052
138.2.59.196    8880
141.147.144.183 8080
141.147.144.183 2095
132.145.112.168 8080
64.110.80.28    2052
64.110.80.28    80
64.110.80.28    2082
64.110.80.28    2086
64.110.80.28    2095
64.110.78.132   80
64.110.80.28    8080
64.110.80.28    8880
64.110.78.132   2082
64.110.78.132   2086
64.110.78.132   2095
64.110.78.132   8080
64.110.78.132   8880
141.147.163.213 8880
64.110.78.132   2052
138.2.124.89    8080
138.2.124.89    8880
138.2.117.237   2082
138.2.92.145    51058
140.238.40.131  2052
140.83.82.164   2052
131.186.24.109  80
131.186.24.109  2082
131.186.24.109  2086
131.186.24.109  2052
131.186.24.109  2095
131.186.24.109  8080
131.186.24.109  8880
144.24.79.237   2052
144.24.79.237   2095
144.24.79.237   8080
193.122.107.16  2052
193.122.107.16  80
152.70.82.229   2095
193.122.107.16  2082
193.122.107.16  2086
193.122.107.16  2095
193.122.107.16  8880
193.122.107.16  8080
144.24.79.237   2086
144.24.79.237   8880
158.180.93.73   80
158.180.93.73   2052
158.180.93.73   2095
158.180.93.73   2082
158.180.93.73   8080
141.147.156.71  80
168.138.47.33   80
168.138.47.33   2086
168.138.47.33   8080
141.147.167.44  8880
141.147.167.44  2082
193.123.233.143 2096
193.123.233.143 2083
141.147.167.44  8080
168.138.47.33   2082
138.2.104.2     80
146.56.115.227  2052
138.2.104.2     2082
146.56.115.227  2082
138.2.104.2     2086
138.2.104.2     8080
138.2.104.2     8880
138.2.44.145    2086
146.56.115.227  2086
146.56.115.227  80
158.180.94.163  80
158.180.94.163  2082
158.180.94.163  2086
158.180.94.163  8080
158.180.94.163  8880
144.24.66.202   2052
144.24.66.202   80
144.24.66.202   2086
144.24.66.202   8080
144.24.66.202   8880
141.147.154.117 2052
141.147.154.117 2086
141.147.154.117 8880
158.180.94.163  2052
152.70.89.247   80
152.70.89.247   2086
152.70.89.247   2082
152.70.89.247   8880
152.70.89.247   8080
150.230.212.246 80
150.230.212.246 8880
158.180.66.96   2095
129.154.60.133  80
152.67.200.141  2052
152.67.200.141  2086
152.67.200.141  2095
152.67.200.141  80
158.180.66.96   2086
152.67.200.141  8080
158.180.66.96   8080
152.67.200.141  2082
129.154.60.133  8080
168.138.212.70  2052
132.145.124.67  2082
132.145.124.67  2086
168.138.212.70  2086
140.238.30.221  80
140.238.30.221  2052
140.238.30.221  2082
140.238.30.221  2086
140.238.30.221  2095
140.238.30.221  8080
140.238.30.221  8880
132.145.124.67  8880
132.145.124.67  80
146.56.136.138  80
146.56.136.138  2052
146.56.136.138  2086
146.56.136.138  2095
146.56.136.138  8080
146.56.136.138  2082
146.56.136.138  8880
158.179.176.170 2086
158.180.78.44   2095
158.179.176.170 8080
158.179.176.170 2095
158.179.194.21  2082
158.179.194.21  2086
140.83.63.124   2095
168.138.214.117 2082
158.179.194.21  8080
158.179.194.21  8880
168.138.214.117 2052
168.138.214.117 2095
141.147.185.252 2052
141.147.185.252 2095
141.147.185.252 8880
132.226.19.22   80
132.226.19.22   2082
132.226.19.22   2052
132.226.19.22   2086
132.226.19.22   2095
132.226.19.22   8080
132.226.19.22   8880
193.122.110.51  2082
193.122.110.51  2052
193.122.110.51  80
193.122.110.51  2086
193.122.110.51  2095
193.122.110.51  8080
193.122.110.51  8880
141.147.185.252 2082
158.180.93.139  2082
168.138.212.213 2095
141.147.185.252 2086
138.2.36.13     8080
138.2.36.13     2052
138.2.36.13     8880
138.2.14.77     2095
138.2.14.77     8880
138.2.14.77     2052
158.180.93.207  8880
158.180.68.135  80
158.180.68.135  2052
158.180.68.135  2082
158.180.68.135  2086
158.180.68.135  8080
158.180.68.135  8880
146.56.43.73    2052
146.56.43.73    80
146.56.43.73    2082
146.56.43.73    2086
146.56.43.73    2095
146.56.43.73    8080
146.56.43.73    8880
152.69.231.171  2082
146.56.97.142   2082
152.69.231.171  2052
146.56.97.142   8880
152.69.231.171  8080
64.110.96.180   8080
64.110.96.180   8880
130.162.141.201 2052
130.162.141.201 80
130.162.141.201 2082
130.162.141.201 2086
130.162.141.201 2095
130.162.141.201 8080
130.162.141.201 8880
64.110.96.180   80
150.230.59.86   2086
150.230.59.86   2095
138.3.214.43    2095
138.3.214.43    2082
138.3.214.43    2086
141.147.148.139 2082
129.154.220.213 6667
140.238.29.117  443
168.138.204.6   8080
168.138.204.6   8880
64.110.82.162   80
64.110.65.255   80
64.110.65.255   2052
64.110.65.255   2082
64.110.65.255   2086
64.110.65.255   2095
64.110.65.255   8080
64.110.65.255   8880
140.83.62.76    2082
130.162.150.152 80
130.162.150.152 2052
140.83.62.76    2095
140.83.62.76    8080
158.180.83.144  2086
158.180.83.144  8080
158.180.83.144  2095
158.180.83.144  2082
138.2.18.103    2082
138.2.18.103    2095
168.138.210.122 80
193.123.252.149 80
193.123.252.149 2052
193.123.252.149 2086
193.123.252.149 8880
193.123.252.149 2082
193.123.252.149 8080
138.2.18.103    8880
141.147.180.202 2052
146.56.119.93   2082
146.56.119.93   8080
141.147.180.202 2086
168.138.210.122 2095
141.147.180.202 8080
168.138.34.14   2082
168.138.34.14   8880
152.67.197.157  2052
152.67.197.157  2086
152.67.197.157  8880
168.138.47.39   2095
152.67.197.157  8080
146.56.138.12   80
141.147.180.252 80
141.147.180.252 2095
141.147.180.252 8080
146.56.138.12   2052
146.56.138.12   2082
146.56.138.12   2086
146.56.138.12   2095
146.56.138.12   8080
146.56.138.12   8880
158.180.88.31   80
158.180.88.31   2052
158.180.88.31   2095
158.180.88.31   8880
158.180.88.31   8080
158.180.88.31   2082
158.180.88.31   2086
168.138.35.108  2052
168.138.35.108  8880
168.138.35.108  80
144.24.74.115   80
144.24.74.115   2052
144.24.74.115   2082
168.138.35.108  2095
144.24.74.115   2086
144.24.74.115   8080
140.83.48.95    2052
152.67.218.167  2052
140.238.9.27    2052
140.238.9.27    2082
140.238.9.27    80
140.238.9.27    2095
140.238.9.27    2086
140.238.9.27    8080
140.238.9.27    8880
158.180.71.217  2082
140.238.18.55   80
140.238.18.55   2082
140.238.18.55   2052
144.24.78.226   2095
144.24.78.226   2052
144.24.78.226   80
140.238.18.55   2086
144.24.78.226   8880
144.24.78.226   2086
140.238.18.55   2095
140.238.18.55   8880
140.238.18.55   8080
158.179.174.32  2052
158.179.174.32  8080
158.179.174.32  2086
158.179.174.32  80
64.110.101.226  80
64.110.101.226  2086
64.110.101.226  2082
141.147.151.49  80
141.147.151.49  2086
141.147.151.49  2082
141.147.151.49  2095
141.147.151.49  8080
141.147.151.49  8880
158.180.70.150  2052
158.180.70.150  2082
158.180.70.150  8080
158.180.70.150  80
132.145.81.28   80
132.145.81.28   2082
132.145.81.28   2086
158.180.70.150  2086
132.145.81.28   2095
132.145.81.28   8080
132.145.81.28   8880
132.145.126.21  2082
158.180.85.67   2082
158.180.85.67   80
158.180.85.67   2052
158.180.85.67   2095
158.180.85.67   8880
152.67.210.55   2052
152.67.210.55   2095
152.67.210.55   8080
132.226.16.186  2052
132.226.16.186  80
132.226.16.186  2082
132.226.16.186  2086
132.226.16.186  2095
132.226.16.186  8080
132.226.16.186  8880
193.122.121.75  2052
193.122.121.75  80
193.122.121.75  2082
193.122.121.75  2086
193.122.121.75  2095
193.122.121.75  8080
193.122.121.75  8880
138.2.59.111    8080
138.2.58.168    2086
138.2.123.130   80
138.2.58.168    2095
138.2.58.168    8080
138.2.123.130   2095
138.2.123.130   2082
152.69.193.84   2052
152.69.193.84   8080
152.69.193.84   8880
138.2.123.130   8080
158.180.85.195  2052
158.180.85.195  80
158.180.85.195  2082
158.180.85.195  2095
168.138.215.80  2082
168.138.215.80  2095
168.138.215.80  2052
158.180.85.195  2086
141.147.146.21  2052
150.230.7.197   2052
168.138.215.80  8880
141.147.146.21  2095
129.154.197.192 80
129.154.197.192 2052
158.180.85.195  8080
150.230.7.197   80
129.154.197.192 2082
129.154.197.192 2086
129.154.197.192 2095
129.154.197.192 8080
138.2.60.136    2082
129.154.197.192 8880
138.2.60.136    80
152.69.233.214  80
140.238.35.195  8880
140.83.35.224   2052
146.56.138.251  80
146.56.138.251  2052
146.56.138.251  2082
146.56.138.251  2086
146.56.138.251  2095
146.56.138.251  8080
146.56.138.251  8880
158.179.173.127 8080
158.179.173.127 2082
158.179.173.127 2052
140.238.35.195  2052
64.110.105.179  2086
64.110.105.179  2095
64.110.105.179  8080
64.110.105.179  8880
140.83.50.255   2082
140.83.50.255   2095
140.83.50.255   8080
64.110.78.28    2052
64.110.78.28    80
64.110.78.28    2082
64.110.78.28    2086
64.110.78.28    8080
64.110.78.28    2095
64.110.78.28    8880
140.238.54.151  8880
132.145.115.17  2052
140.238.54.151  80
140.238.54.151  2052
140.238.54.151  2095
155.248.172.11  2095
146.56.176.49   80
64.110.76.29    2052
64.110.76.29    80
146.56.176.49   2052
146.56.176.49   2082
64.110.76.29    2086
64.110.76.29    2082
146.56.176.49   2086
64.110.76.29    2095
146.56.176.49   2095
64.110.76.29    8080
146.56.176.49   8080
64.110.76.29    8880
146.56.176.49   8880
146.56.106.69   8880
152.70.255.126  2052
152.70.255.126  80
152.70.255.126  2086
152.70.255.126  2082
152.70.255.126  2095
158.180.94.194  2082
158.180.94.194  2086
158.180.94.194  8080
152.70.255.126  8880
152.70.255.126  8080
158.180.94.194  8880
158.180.94.194  2052
158.180.94.194  80
141.147.160.9   2082
132.226.20.69   2082
132.226.20.69   80
132.226.20.69   2052
132.226.20.69   2095
132.226.20.69   8080
132.226.20.69   2086
132.226.20.69   8880
152.67.197.155  2086
152.67.197.155  2095
152.67.197.155  8080
146.56.104.15   80
152.67.197.155  2052
146.56.104.15   2086
146.56.104.15   8880
132.145.121.211 8880
152.67.199.83   80
152.67.199.83   8880
152.67.199.83   8080
64.110.74.69    2082
64.110.74.69    80
64.110.74.69    2052
64.110.74.69    2086
158.101.152.221 2082
64.110.74.69    2095
64.110.74.69    8080
64.110.74.69    8880
158.101.152.221 8080
146.56.152.189  2052
146.56.152.189  2086
146.56.152.189  2082
146.56.152.189  80
146.56.152.189  2095
146.56.152.189  8880
146.56.152.189  8080
140.83.86.76    80
140.83.86.76    2082
140.83.86.76    2086
140.83.86.76    2095
152.67.199.83   2082
158.101.89.33   2095
158.101.89.33   8080
193.122.118.199 10086
158.101.89.33   2052
150.230.254.34  2052
150.230.254.34  2082
150.230.254.34  2095
150.230.254.34  8080
64.110.73.207   80
64.110.73.207   2052
150.230.254.34  8880
64.110.73.207   2095
64.110.73.207   2086
64.110.73.207   2082
64.110.73.207   8880
64.110.73.207   8080
152.70.87.134   2086
146.56.136.242  80
146.56.136.242  2052
146.56.136.242  2082
146.56.136.242  2086
152.70.87.134   2052
146.56.136.242  8080
146.56.136.242  2095
146.56.136.242  8880
152.70.87.134   2095
138.2.114.179   2052
138.2.114.179   80
138.2.114.179   2086
138.2.114.179   8080
138.2.114.179   8880
158.180.72.106  2086
158.180.72.106  8080
158.180.72.106  80
158.180.72.106  8880
132.145.120.5   8880
132.145.120.5   2082
132.145.120.5   2095
132.145.120.5   2086
64.110.90.15    80
64.110.90.15    2082
64.110.90.15    2052
64.110.90.15    2086
64.110.90.15    2095
132.145.120.5   8080
64.110.90.15    8080
64.110.90.15    8880
152.67.200.192  2082
152.67.200.192  2095
152.67.200.192  8080
152.67.200.192  8880
152.67.200.192  80
146.56.106.87   2052
146.56.106.87   2082
146.56.106.87   2086
146.56.106.87   2095
146.56.106.87   8080
146.56.106.87   8880
152.67.200.192  2086
152.70.106.46   2086
144.24.85.9     2052
141.147.148.201 2095
152.70.106.46   2052
158.179.175.213 2095
158.179.175.213 2082
158.179.175.213 8080
158.179.175.213 8880
132.145.120.184 80
132.145.120.184 2052
152.70.106.46   8080
132.145.120.184 2082
158.179.175.213 2052
158.179.175.213 80
131.186.31.56   2082
131.186.31.56   2095
131.186.31.56   80
131.186.31.56   2052
131.186.31.56   8880
131.186.31.56   2086
131.186.31.56   8080
138.2.8.135     8080
138.3.223.203   8880
138.2.8.135     2082
64.110.80.81    2052
64.110.80.81    80
64.110.80.81    2082
64.110.80.81    2086
64.110.80.81    8080
64.110.80.81    8880
64.110.80.81    2095
158.179.194.49  2086
158.179.194.49  2082
140.238.60.217  2095
152.69.192.166  8880
152.69.192.166  80
152.69.192.166  2082
152.69.192.166  2095
141.147.148.151 2052
141.147.148.151 2095
141.147.158.152 8880
158.180.67.192  80
158.180.67.192  2052
158.180.67.192  2086
158.180.67.192  2095
158.180.67.192  8880
158.180.67.192  2082
141.147.158.152 2082
138.2.114.110   2086
138.2.114.110   2095
138.2.114.110   8880
138.2.114.110   2052
138.2.114.110   8080
152.69.234.15   80
152.69.234.15   2052
152.69.234.15   2082
152.69.234.15   2086
152.69.234.15   8080
152.69.234.15   8880
158.180.87.5    2086
158.180.87.5    2095
168.138.202.145 8880
168.138.202.145 2086
168.138.202.145 8080
158.180.87.5    8880
138.2.3.7       2095
168.138.41.194  2082
140.238.14.39   80
140.238.14.39   2052
130.162.61.18   80
140.238.14.39   2082
138.2.3.7       8880
140.238.14.39   2086
140.238.14.39   2095
140.238.14.39   8080
140.238.14.39   8880
168.138.41.194  2095
152.70.246.85   80
152.70.246.85   2086
152.70.246.85   2082
152.70.246.85   8080
152.70.246.85   8880
141.147.191.211 8880
141.147.191.211 2095
152.69.205.43   80
152.69.205.43   2086
141.147.191.211 2086
141.147.191.211 8080
158.178.242.56  80
158.178.242.56  2052
158.178.242.56  2082
158.178.242.56  2086
158.178.242.56  2095
158.178.242.56  8880
158.178.242.56  8080
64.110.75.254   2082
64.110.75.254   2052
146.56.181.209  2052
146.56.181.209  80
146.56.181.209  2082
131.186.40.42   2086
146.56.181.209  2095
146.56.181.209  2086
146.56.181.209  8080
146.56.181.209  8880
131.186.40.42   2095
138.2.123.81    80
138.2.123.81    2082
132.226.233.5   80
132.226.233.5   2052
132.226.233.5   2082
132.226.233.5   2095
132.226.233.5   2086
138.2.123.81    2086
138.2.123.81    8880
138.2.123.81    2095
132.226.233.5   8880
132.226.233.5   8080
138.2.123.81    2052
146.56.176.13   2052
146.56.176.13   2082
146.56.176.13   80
146.56.176.13   2095
141.147.151.80  2052
141.147.151.80  80
146.56.176.13   2086
146.56.176.13   8080
146.56.176.13   8880
152.69.225.248  80
152.69.225.248  2052
152.69.225.248  2082
152.69.225.248  2086
152.69.225.248  8080
141.147.151.80  2086
138.2.60.220    2082
138.2.60.220    8880
152.69.225.248  8880
140.238.14.240  80
140.238.14.240  2052
140.238.14.240  2082
140.238.14.240  2086
140.238.14.240  8080
140.238.14.240  2095
140.238.14.240  8880
152.69.192.22   8880
150.230.57.238  80
138.2.61.59     2086
138.2.61.59     8080
138.2.61.59     8880
150.230.57.238  2086
138.2.61.59     2095