8.219.174.148   7918
8.222.153.193   8443
8.222.227.227   8443
8.222.212.255   443
8.222.212.255   2083
8.222.212.255   2087
8.222.212.255   2053
8.222.212.255   2096
8.222.212.255   8443
47.245.55.202   2053
47.243.172.103  55041
47.245.55.202   2087
47.243.85.65    58139
47.236.4.140    2053
47.236.4.140    8443
47.236.4.140    2083
47.245.55.202   2096
47.236.4.140    2087
47.236.4.140    2096
47.245.55.202   8443
8.219.219.98    2083
8.219.219.98    2096
8.219.219.98    8443
8.219.186.203   2096
47.245.118.37   2053
47.245.118.37   2096
47.245.118.37   2087
47.245.118.37   2083
47.245.118.37   8443
47.245.14.74    2087
47.245.14.74    2096
47.245.14.74    8443
47.245.14.74    2053
47.245.14.74    2083
47.242.207.216  446
47.245.39.116   2053
47.245.39.116   2096
47.245.39.116   2083
47.245.126.232  2083
47.240.81.219   2005
47.245.39.116   8443
47.245.31.153   2053
47.245.31.153   2083
47.245.31.153   2096
47.91.1.94      2083
47.91.1.94      2096
47.91.1.94      2053
47.91.1.94      8443
47.90.124.48    10443
47.245.31.153   2087
47.245.117.207  2096
47.245.117.207  2083
47.245.117.207  2053
8.219.228.186   2083
8.219.228.186   2096
47.245.117.207  8443
47.245.117.207  2087
8.219.228.186   2087
8.219.228.186   2053
8.219.228.186   8443
8.218.27.11     55527
8.217.229.36    11579
8.217.229.36    15071
8.217.229.36    43801
47.245.59.188   2096
47.245.59.188   2087
47.245.59.188   2053
47.245.59.188   8443
47.245.59.188   2083
47.91.22.66     2096
47.91.22.66     2087
8.212.43.8      443
8.217.12.95     28235
8.219.193.97    443
8.219.193.97    2053
8.219.193.97    2087
8.219.193.97    2083
47.91.22.66     8443
8.219.193.97    2096
8.219.193.97    8443
8.219.110.248   443
8.219.110.248   2053
8.219.110.248   2083
8.219.110.248   2096
8.219.110.248   2087
8.219.110.248   8443
47.243.179.249  2087
47.243.179.249  2096
47.243.179.249  2053
47.243.179.249  2083
47.243.179.249  8443
47.88.221.55    6446
47.88.221.55    6445
8.222.200.16    2053
47.236.116.255  2053
47.236.116.255  2096
47.236.116.255  2083
47.236.116.255  8443
47.236.116.255  2087
8.219.214.196   12666
8.219.214.196   15266
47.74.53.112    8443
47.74.6.55      2087
47.236.9.147    2053
47.236.9.147    2087
47.74.6.55      8443
47.236.9.147    2096
47.236.9.147    2083
47.236.9.147    8443
47.245.52.197   2083
47.245.52.197   2087
47.245.52.197   2096
47.74.53.112    2096
47.74.53.112    2083
47.74.53.112    2053
47.243.18.139   11322
47.74.6.55      2053
8.222.157.156   2087
47.245.52.197   2053
47.245.52.197   8443
8.219.3.213     41074
47.245.12.189   2087
47.245.12.189   8443
47.245.12.189   2083
47.74.43.143    2083
47.74.43.143    8443
47.74.43.143    2087
47.74.43.143    2096
8.219.199.70    443
8.219.199.70    2053
8.219.199.70    2087
8.219.199.70    2083
8.219.199.70    2096
8.219.199.70    8443
47.245.12.189   2096
8.210.49.165    36950
8.222.177.2     22672
8.219.199.70    2053
8.219.199.70    2096
8.219.199.70    2087
8.219.199.70    443
8.219.199.70    2083
8.219.199.70    8443
47.245.37.56    2053
8.218.231.232   10003
47.245.37.56    8443
47.245.37.56    2096
8.222.251.173   2096
8.222.251.173   2053
8.222.251.173   2087
8.222.251.173   8443
8.222.251.173   2083
47.236.13.157   2053
47.245.37.56    2083
47.236.13.157   2083
47.245.59.167   8443
47.245.59.167   2096
47.245.59.167   2083
47.236.13.157   2087
47.236.13.157   8443
47.236.13.157   2096
8.219.69.4      2083
8.217.85.212    29606
8.219.69.4      2087
8.217.85.212    20429
8.219.69.4      8443
8.219.69.4      2053
8.219.69.4      2096
47.245.59.167   2087
149.129.101.83  17385
8.222.181.177   2087
8.222.181.177   2053
8.217.1.108     59956
8.217.1.108     28237
8.222.131.57    2087
8.222.131.57    2096
8.222.131.57    2053
8.222.131.57    2083
8.222.131.57    8443
8.219.248.47    2096
8.219.248.47    2083
8.219.248.47    2053
8.219.248.47    8443
8.219.248.47    2087
47.91.1.38      2096
8.222.156.205   2053
8.222.156.205   443
8.222.156.205   2083
8.222.156.205   2087
8.222.156.205   2096
8.222.156.205   8443
47.74.7.51      2083
47.91.1.38      2087
8.222.199.55    443
8.222.199.55    2053
8.222.199.55    2083
8.222.199.55    2096
8.222.199.55    2087
8.222.199.55    8443
8.217.211.92    59103
47.91.1.38      2053
47.74.7.51      2096
47.74.6.241     8443
47.242.75.110   34237
47.74.13.66     2053
47.74.13.66     8443
47.243.60.191   34237
47.74.13.66     2083
8.218.231.39    34237
8.218.27.203    34237
198.11.169.237  34237
8.219.198.34    443
8.219.198.34    2053
8.219.198.34    2083
8.219.198.34    2087
8.219.198.34    8443
8.219.198.34    2096
8.217.139.0     34237
47.243.135.179  55308
8.210.10.159    34237
8.219.107.199   443
8.219.107.199   2053
8.219.107.199   2087
8.219.107.199   2096
8.219.107.199   2083
8.219.107.199   8443
8.217.85.192    47297
47.236.106.42   2053
47.236.106.42   2083
47.236.106.42   2096
47.236.106.42   8443
47.236.106.42   2087
47.243.73.111   34237
8.219.247.251   57000
8.210.125.20    34237
47.242.155.183  2053
47.242.155.183  2087
47.242.155.183  8443
47.242.155.183  2096
47.243.93.216   2505
47.243.93.216   2508
47.243.93.216   2507
8.217.143.110   34237
8.210.220.19    34237
8.222.240.10    2053
8.222.240.10    2083
8.222.240.10    2087
8.222.240.10    2096
8.222.240.10    8443
47.243.251.105  34237
47.74.19.240    2053
47.74.19.240    2083
47.74.19.240    443
47.74.19.240    2096
47.74.19.240    8443
47.74.19.240    2087
8.217.46.62     34237
8.210.200.108   34237
8.219.87.55     53104
8.218.102.138   34237
8.210.32.132    81
47.245.121.221  2053
47.245.121.221  8443
8.217.137.53    34237
8.218.231.118   34237
8.209.242.25    2053
8.209.242.25    2096
8.209.242.25    2087
47.75.101.0     3443
8.209.242.25    2083
8.212.4.25      443
198.11.169.232  34237
8.219.72.50     2053
8.219.72.50     2083
8.219.72.50     2087
8.219.72.50     2096
8.219.72.50     8443
47.243.205.247  34237
47.245.11.230   2087
47.245.11.230   8443
47.245.11.230   443
47.74.43.95     2083
47.242.244.195  34237
47.74.43.95     8443
8.217.115.125   34237
47.74.43.95     2087
47.74.43.95     2096
47.74.43.95     2053
47.242.236.164  34237
47.254.42.37    34237
8.218.106.91    34237
47.236.107.152  2053
47.236.107.152  2096
8.222.220.108   2053
47.236.107.152  2083
47.236.107.152  2087
47.236.107.152  8443
8.222.220.108   2083
47.74.42.69     2083
47.74.42.69     2053
8.222.220.108   2087
8.222.220.108   2096
8.222.220.108   8443
47.74.42.69     8443
47.74.42.69     2087
47.251.45.100   34237
8.217.44.63     34237
8.217.96.88     34237
47.245.55.235   8443
47.245.55.235   2087
47.245.55.235   2096
47.236.15.108   2053
47.236.15.108   8443
47.236.15.108   2083
47.236.15.108   2087
47.236.15.108   2096
47.236.112.103  2053
47.254.14.26    34237
47.236.112.103  2083
47.236.112.103  2096
47.236.112.103  8443
47.236.112.103  2087
8.222.201.231   2053
8.222.201.231   2083
47.88.20.52     34237
47.236.19.213   65432
47.245.87.116   8443
47.245.87.116   2053
47.245.87.116   2096
47.245.87.116   2087
47.236.15.174   2053
8.217.94.13     42952
47.236.15.174   2083
47.236.15.174   2096
47.236.15.174   2087
47.236.15.174   8443
8.219.237.57    31523
47.242.149.43   13380
8.210.83.108    34237
47.74.4.47      2083
47.74.4.47      2053
47.74.4.47      2096
47.74.4.47      2087
47.243.225.216  34237
47.74.4.47      8443
8.218.69.90     18351
47.236.101.228  2053
47.236.101.228  8443
47.236.101.228  2083
47.236.101.228  2087
47.236.101.228  2096
8.219.57.61     2053
8.219.57.61     2083
8.219.57.61     2087
8.218.94.185    34237
8.217.122.226   34237
8.210.36.186    34237
47.243.130.69   6443
8.218.209.36    34237
8.218.42.123    34237
198.11.169.55   34237
8.222.193.225   2083
47.245.86.39    2096
47.251.43.221   34237
8.217.16.173    55387
8.218.159.31    34237
8.218.229.19    34237
8.217.121.219   12073
8.217.121.219   49025
8.222.152.3     2053
8.222.152.3     2083
8.222.152.3     2096
8.222.152.3     2087
8.222.152.3     8443
8.210.252.139   34237
8.210.36.206    34237
8.222.200.162   2053
8.222.200.162   2083
47.243.84.207   34237
8.218.228.59    34237
47.242.187.200  34237
8.219.193.81    2053
8.219.193.81    2087
8.219.193.81    2096
8.219.193.81    8443
8.222.245.94    2053
8.222.245.94    2083
47.242.53.126   34237
8.222.245.94    2096
8.222.245.94    2087
8.222.245.94    8443
47.243.227.209  62001
47.242.92.93    34237
8.217.64.152    8443
8.219.254.209   41101
8.222.136.9     2053
8.219.196.24    443
8.219.196.24    2096
8.219.196.24    2087
8.219.196.24    2053
8.219.196.24    2083
8.219.196.24    8443
47.242.106.213  34237
47.242.104.144  34237
8.208.85.69     34237
47.236.106.39   34241
47.236.0.246    2083
8.219.65.50     2087
47.236.0.246    2053
47.236.0.246    2087
8.219.65.50     8443
47.236.0.246    2096
47.236.0.246    8443
47.242.59.213   39124
47.236.122.233  2053
47.245.4.22     2083
47.236.122.233  2083
47.236.122.233  2087
47.236.122.233  8443
47.236.122.233  2096
8.218.42.158    34237
8.222.133.63    2053
8.222.133.63    2096
8.218.178.2     20001
47.252.69.249   34237
8.217.102.6     34237
47.251.74.30    34237
8.219.163.214   2053
47.245.9.99     2083
47.245.9.99     8443
47.243.254.148  34237
8.209.215.247   2053
8.209.215.247   2087
8.209.215.247   8443
47.245.9.99     2096
47.251.11.76    34237
8.209.215.247   2096
8.209.215.247   2083
47.245.9.99     2053
47.243.25.168   34237
8.210.104.158   34237
47.242.147.249  34237
8.210.74.9      34237
8.219.199.25    2083
8.219.199.25    8443
8.222.201.181   2053
8.222.201.181   2083
8.222.201.181   2087
8.210.203.171   34237
47.251.32.97    34237
47.243.190.108  34237
47.251.52.59    34237
47.74.15.117    2083
8.212.53.159    443
8.210.0.151     34237
47.236.111.221  2053
47.236.111.221  2087
47.236.111.221  8443
47.236.111.221  2083
47.236.111.221  2096
47.236.102.195  2053
47.236.102.195  2087
47.236.102.195  2083
47.236.102.195  2096
47.236.102.195  8443
47.76.59.121    3306
8.210.130.11    47806
47.236.0.98     2096
8.219.102.252   443
8.219.102.252   2053
8.219.102.252   2087
8.219.102.252   2083
8.219.102.252   2096
8.219.102.252   8443
47.245.90.138   2053
47.245.90.138   2083
8.214.20.190    13450
47.245.90.138   2096
47.245.90.138   8443
47.245.110.187  2053
47.245.110.187  8443
47.236.100.114  2087
47.236.100.114  2053
47.236.100.114  2083
47.251.32.212   34237
47.236.100.114  8443
47.236.100.114  2096
47.242.239.148  34237
8.222.138.166   21737
8.222.239.214   2053
8.222.239.214   2083
8.222.239.214   2087
8.222.239.214   2096
8.222.239.214   8443
8.219.252.191   2053
8.219.252.191   2087
8.219.252.191   8443
8.219.252.191   2096
47.74.254.191   8900
8.219.120.112   2096
47.236.0.17     2053
47.236.0.17     2087
47.236.0.17     2083
47.236.0.17     2096
47.236.0.17     8443
8.222.161.86    32101
8.218.155.201   34237
8.217.46.5      34237
47.74.22.171    2053
47.74.22.171    8443
47.74.22.171    2083
47.243.81.85    25487
47.74.18.121    2053
47.74.22.171    2087
47.74.18.121    2096
47.74.18.121    2087
47.74.18.121    2083
8.209.212.5     2083
147.139.68.64   34237
47.243.184.223  34237
8.210.105.217   55213
8.222.193.65    2087
8.222.193.65    2096
8.222.193.65    2083
8.222.193.65    443
8.222.193.65    8443